{
    "speakers": [
                 {
                 "ssid": "Lotsen_Vinyl_Black",
                 "color": "Lotsen_Vinyl_Black",
                 "name": "Lotsen Vinyl Black",
                 "displayModel": "Lotsen",
                 "displayColor": "Vinyl Black",
                 "list_item": "list_item_lotsen_black",
                 "list_item_small": "list_item_small_lotsen_black",
                 "hero": "hero_lotsen_black",
                 "connectable": true
                 },
                 {
                 "ssid": "Lotsen_Plant_Green",
                 "color": "Lotsen_Plant_Green",
                 "name": "Lotsen Plant Green",
                 "displayModel": "Lotsen",
                 "displayColor": "Plant Green",
                 "list_item": "list_item_lotsen_green",
                 "list_item_small": "list_item_small_lotsen_green",
                 "hero": "hero_lotsen_green",
                 "connectable": true
                 },
                 {
                 "ssid": "Lotsen_Concrete_Grey",
                 "color": "Lotsen_Concrete_Grey",
                 "name": "Lotsen Concrete Grey",
                 "displayModel": "Lotsen",
                 "displayColor": "Concrete Grey",
                 "list_item": "list_item_lotsen_grey",
                 "list_item_small": "list_item_small_lotsen_grey",
                 "hero": "hero_lotsen_grey",
                 "connectable": true
                 },
                 {
                 "ssid": "Lotsen_Indigo",
                 "color": "Lotsen_Indigo",
                 "name": "Lotsen Indigo",
                 "displayModel": "Lotsen",
                 "displayColor": "Indigo",
                 "list_item": "list_item_lotsen_blue",
                 "list_item_small": "list_item_small_lotsen_blue",
                 "hero": "hero_lotsen_blue",
                 "connectable": true
                 },
                 {
                 "ssid": "Lotsen_Dirty_Pink",
                 "color": "Lotsen_Dirty_Pink",
                 "name": "Lotsen Dirty Pink",
                 "displayModel": "Lotsen",
                 "displayColor": "Dirty Pink",
                 "list_item": "list_item_lotsen_pink",
                 "list_item_small": "list_item_small_lotsen_pink",
                 "hero": "hero_lotsen_pink",
                 "connectable": true
                 },
                 {
                 "ssid": "Lotsen_Gold_Fish",
                 "color": "Lotsen_Gold_Fish",
                 "name": "Lotsen Gold Fish",
                 "displayModel": "Lotsen",
                 "displayColor": "Gold Fish",
                 "list_item": "list_item_lotsen_orange",
                 "list_item_small": "list_item_small_lotsen_orange",
                 "hero": "hero_lotsen_orange",
                 "connectable": true
                 },
                 {
                 "ssid": "Stammen_Vinyl_Black",
                 "color": "Stammen_Vinyl_Black",
                 "name": "Stammen Vinyl Black",
                 "displayModel": "Stammen",
                 "displayColor": "Vinyl Black",
                 "list_item": "list_item_stammen_black",
                 "list_item_small": "list_item_small_stammen_black",
                 "hero": "hero_stammen_black",
                 "connectable": true
                 },
                 {
                 "ssid": "Stammen_Plant_Green",
                 "color": "Stammen_Plant_Green",
                 "name": "Stammen Plant Green",
                 "displayModel": "Stammen",
                 "displayColor": "Plant Green",
                 "list_item": "list_item_stammen_green",
                 "list_item_small": "list_item_small_stammen_green",
                 "hero": "hero_stammen_green",
                 "connectable": true
                 },
                 {
                 "ssid": "Stammen_Concrete_Grey",
                 "color": "Stammen_Concrete_Grey",
                 "name": "Stammen Concrete Grey",
                 "displayModel": "Stammen",
                 "displayColor": "Concrete Grey",
                 "list_item": "list_item_stammen_grey",
                 "list_item_small": "list_item_small_stammen_grey",
                 "hero": "hero_stammen_grey",
                 "connectable": true
                 },
                 {
                 "ssid": "Stammen_Indigo",
                 "color": "Stammen_Indigo",
                 "name": "Stammen Indigo",
                 "displayModel": "Stammen",
                 "displayColor": "Indigo",
                 "list_item": "list_item_stammen_blue",
                 "list_item_small": "list_item_small_stammen_blue",
                 "hero": "hero_stammen_blue",
                 "connectable": true
                 },
                 {
                 "ssid": "Stammen_Dirty_Pink",
                 "color": "Stammen_Dirty_Pink",
                 "name": "Stammen Dirty Pink",
                 "displayModel": "Stammen",
                 "displayColor": "Dirty Pink",
                 "list_item": "list_item_stammen_pink",
                 "list_item_small": "list_item_small_stammen_pink",
                 "hero": "hero_stammen_pink",
                 "connectable": true
                 },
                 {
                 "ssid": "Stammen_Gold_Fish",
                 "color": "Stammen_Gold_Fish",
                 "name": "Stammen Gold Fish",
                 "displayModel": "Stammen",
                 "displayColor": "Gold Fish",
                 "list_item": "list_item_stammen_orange",
                 "list_item_small": "list_item_small_stammen_orange",
                 "hero": "hero_stammen_orange",
                 "connectable": true
                 },
                 {
                 "ssid": "Baggen_Vinyl_Black",
                 "color": "Baggen_Vinyl_Black",
                 "name": "Baggen Vinyl Black",
                 "displayModel": "Baggen",
                 "displayColor": "Vinyl Black",
                 "list_item": "list_item_baggen_black",
                 "list_item_small": "list_item_small_baggen_black",
                 "hero": "hero_baggen_black",
                 "connectable": true
                 },
                 {
                 "ssid": "Baggen_Plant_Green",
                 "color": "Baggen_Plant_Green",
                 "name": "Baggen Plant Green",
                 "displayModel": "Baggen",
                 "displayColor": "Plant Green",
                 "list_item": "list_item_baggen_green",
                 "list_item_small": "list_item_small_baggen_green",
                 "hero": "hero_baggen_green",
                 "connectable": true
                 },
                 {
                 "ssid": "Baggen_Concrete_Grey",
                 "color": "Baggen_Concrete_Grey",
                 "name": "Baggen Concrete Grey",
                 "displayModel": "Baggen",
                 "displayColor": "Concrete Grey",
                 "list_item": "list_item_baggen_grey",
                 "list_item_small": "list_item_small_baggen_grey",
                 "hero": "hero_baggen_grey",
                 "connectable": true
                 },
                 {
                 "ssid": "Baggen_Indigo",
                 "color": "Baggen_Indigo",
                 "name": "Baggen Indigo",
                 "displayModel": "Baggen",
                 "displayColor": "Indigo",
                 "list_item": "list_item_baggen_blue",
                 "list_item_small": "list_item_small_baggen_blue",
                 "hero": "hero_baggen_blue",
                 "connectable": true
                 },
                 {
                 "ssid": "Baggen_Dirty_Pink",
                 "color": "Baggen_Dirty_Pink",
                 "name": "Baggen Dirty Pink",
                 "displayModel": "Baggen",
                 "displayColor": "Dirty Pink",
                 "list_item": "list_item_baggen_pink",
                 "list_item_small": "list_item_small_baggen_pink",
                 "hero": "hero_baggen_pink",
                 "connectable": true
                 },
                 {
                 "ssid": "Baggen_Gold_Fish",
                 "color": "Baggen_Gold_Fish",
                 "name": "Baggen Gold Fish",
                 "displayModel": "Baggen",
                 "displayColor": "Gold Fish",
                 "list_item": "list_item_baggen_orange",
                 "list_item_small": "list_item_small_baggen_orange",
                 "hero": "hero_baggen_orange",
                 "connectable": true
                 },
                 {
                 "ssid": "ActonBlack",
                 "color": "Acton_Black",
                 "name": "Acton Black",
                 "displayModel": "Acton",
                 "displayColor": "Black",
                 "list_item": "list_item_acton_black",
                 "list_item_small": "list_item_small_acton_black",
                 "hero": "hero_acton_black",
                 "connectable": false
                 },
                 {
                 "ssid": "ActonCream",
                 "color": "Acton_Cream",
                 "name": "Acton Cream",
                 "displayModel": "Acton",
                 "displayColor": "Cream",
                 "list_item": "list_item_acton_cream",
                 "list_item_small": "list_item_small_acton_cream",
                 "hero": "hero_acton_cream",
                 "connectable": false
                 },
                 {
                 "ssid": "StanmoreBlack",
                 "color": "Stanmore_Black",
                 "name": "Stanmore Black",
                 "displayModel": "Stanmore",
                 "displayColor": "Black",
                 "list_item": "list_item_stanmore_black",
                 "list_item_small": "list_item_stanmore_black",
                 "hero": "hero_stanmore_black",
                 "connectable": false
                 },
                 {
                 "ssid": "StanmoreCream",
                 "color": "Stanmore_Cream",
                 "name": "Stanmore Cream",
                 "displayModel": "Stanmore",
                 "displayColor": "Cream",
                 "list_item": "list_item_stanmore_cream",
                 "list_item_small": "list_item_small_stanmore_cream",
                 "hero": "hero_stanmore_cream",
                 "connectable": false
                 },
                 {
                 "ssid": "WoburnBlack",
                 "color": "Woburn_Black",
                 "name": "Woburn Black",
                 "displayModel": "Woburn",
                 "displayColor": "Black",
                 "list_item": "list_item_woburn_black",
                 "list_item_small": "list_item_small_woburn_black",
                 "hero": "hero_woburn_black",
                 "connectable": false
                 },
                 {
                 "ssid": "WoburnCream",
                 "color": "Woburn_Cream",
                 "name": "Woburn Cream",
                 "displayModel": "Woburn",
                 "displayColor": "Cream",
                 "list_item": "list_item_woburn_cream",
                 "list_item_small": "list_item_small_woburn_cream",
                 "hero": "hero_woburn_cream",
                 "connectable": false
                 }
                 ]
}
